Алгоритм
	- входные данные
	- выходные данные
	- конечность
	- детерминированность (определенность)


1) Дана последовательность чисел: a1, a2, ... , aN
a1 - aN-1 положительные числа
aN = -1

Примеры:
10, 34, 15, -1
1, -1
10, 10, 10, 10,- 1

Задача: посчитать сумму этих чисел

Решение:

a = 0
sum = 0

a <- Считать

ПОКА (a != -1) {
	sum = sum + a
	a <- Считать
}
sum -> Вывести
-----------------------------------------------------

1) Дана последовательность чисел: a1, a2, ... , aN
a1 - aN-1 положительные числа
aN = -1

Примеры:
10, 34, 15, -1
1, -1
10, 10, 10, 10,- 1

Задача: посчитать сумму этих четных чисел


Решение:
a = 0
sum = 0

a <- Считать

ПОКА (a != -1){

	ЕСЛИ (a - четное){
		sum = sum + a
	}
	a <- Считать
}

sum -> Вывести
-----------------------------------------------------

Домашнее задание:
Дана последовательность чисел: a1, a2, ... , aN
a1 - aN-1 положительные числа
aN = -1

Примеры:
10, 34, 15, 1, 20, 23, 10, -1
1, -1
10, 10, 10, 10,- 1

Задача: вывести минимальное число последовательности

a = 0
min = 0

a <- Считать
min = a

ПОКА (a != -1){

  ЕСЛИ (a < min){
      min = a
  }

  a <- Считать
}

min -> Вывести